﻿<script>
        $(function () {
            $("#mensagens").click(function () {
                $("#modal").load("Utilizadores/MenssagensIndex", function () {
                    $("#modal").modal();
                })
            });
        })
    </script>
 e garantir que ha uma div modal em TODAS as views